Date,High_Sent,Volume_Sent,Sentiment,Low_Sent
2015-08-07,7.0,1.0,7.0,7.0
2015-08-08,7.599999999999998,0.0,7.599999999999998,7.599999999999998
2015-08-09,8.199999999999998,0.0,8.199999999999998,8.199999999999998
2015-08-10,8.799999999999997,0.0,8.799999999999997,8.799999999999997
2015-08-11,9.399999999999997,0.0,9.399999999999997,9.399999999999997
2015-08-12,10.0,1.0,10.0,10.0
2015-08-13,8.0,1.0,8.0,8.0
2015-08-14,8.0,1.0,8.0,8.0
2015-08-15,5.0,1.0,5.0,5.0
2015-08-16,6.344666666666665,0.0,5.777999999999999,5.211333333333333
2015-08-17,7.689333333333331,0.0,6.555999999999998,5.422666666666665
2015-08-18,9.033999999999999,3.0,7.334,5.6339999999999995
2015-08-19,8.0,1.0,8.0,8.0
2015-08-20,7.499999999999999,0.0,7.499999999999999,7.499999999999999
2015-08-21,6.999999999999999,0.0,6.999999999999999,6.999999999999999
2015-08-22,6.499999999999999,0.0,6.499999999999999,6.499999999999999
2015-08-23,5.999999999999999,0.0,5.999999999999999,5.999999999999999
2015-08-24,5.499999999999999,0.0,5.499999999999999,5.499999999999999
2015-08-25,4.999999999999999,0.0,4.999999999999999,4.999999999999999
2015-08-26,4.499999999999999,0.0,4.499999999999999,4.499999999999999
2015-08-27,4.0,1.0,4.0,4.0
2015-08-28,6.0,1.0,6.0,6.0
2015-08-29,6.666666666666665,0.0,6.666666666666665,6.666666666666665
2015-08-30,7.333333333333331,0.0,7.333333333333331,7.333333333333331
2015-08-31,8.0,1.0,8.0,8.0
2015-09-01,8.0,1.0,8.0,8.0
2015-09-02,3.0,1.0,3.0,3.0
2015-09-03,8.0,1.0,8.0,8.0
2015-09-04,7.999999999999999,0.0,7.999999999999999,7.999999999999999
2015-09-05,7.999999999999999,0.0,7.999999999999999,7.999999999999999
2015-09-06,8.0,1.0,8.0,8.0
2015-09-07,7.599999999999998,0.0,7.399999999999999,7.199999999999999
2015-09-08,7.1999999999999975,0.0,6.799999999999998,6.399999999999999
2015-09-09,6.799999999999997,0.0,6.1999999999999975,5.599999999999999
2015-09-10,6.399999999999998,0.0,5.599999999999998,4.799999999999999
2015-09-11,6.0,2.0,5.0,4.0
2015-09-12,7.333333333333331,0.0,6.333333333333332,5.333333333333332
2015-09-13,8.666666666666664,0.0,7.666666666666665,6.666666666666666
2015-09-14,10.0,2.0,9.0,8.0
2015-09-15,7.367000000000001,4.0,6.5,5.6339999999999995
2015-09-16,9.0,4.0,7.5,6.0
2015-09-17,5.0,1.0,5.0,5.0
2015-09-18,10.363,4.0,7.25,4.138
2015-09-19,9.798999999999998,0.0,7.083833333333331,4.368666666666665
2015-09-20,9.234999999999998,0.0,6.917166666666665,4.599333333333332
2015-09-21,8.671,4.0,6.75,4.83
2015-09-22,7.253249999999998,0.0,5.812874999999998,4.372499999999999
2015-09-23,5.835499999999998,0.0,4.8752499999999985,3.9149999999999987
2015-09-24,4.417749999999998,0.0,3.9376249999999984,3.4574999999999987
2015-09-25,3.0,1.0,3.0,3.0
2015-09-26,2.999999999999999,0.0,2.999999999999999,2.999999999999999
2015-09-27,2.999999999999999,0.0,2.999999999999999,2.999999999999999
2015-09-28,3.0,1.0,3.0,3.0
2015-09-29,8.0,1.0,8.0,8.0
2015-09-30,7.999999999999999,0.0,7.999999999999999,7.999999999999999
2015-10-01,8.0,1.0,8.0,8.0
2015-10-02,4.0,1.0,4.0,4.0
2015-10-03,6.999999999999998,0.0,6.999999999999998,6.999999999999998
2015-10-04,10.0,1.0,10.0,10.0
2015-10-05,7.0,1.0,7.0,7.0
2015-10-06,8.0,2.0,7.0,6.0
2015-10-07,7.999999999999999,0.0,7.166666666666666,6.333333333333332
2015-10-08,7.999999999999999,0.0,7.333333333333332,6.666666666666665
2015-10-09,7.999999999999999,0.0,7.499999999999998,6.999999999999998
2015-10-10,7.999999999999999,0.0,7.666666666666665,7.333333333333331
2015-10-11,7.999999999999998,0.0,7.833333333333331,7.666666666666664
2015-10-12,8.0,1.0,8.0,8.0
2015-10-13,8.0,1.0,8.0,8.0
2015-10-14,6.0,1.0,6.0,6.0
2015-10-15,5.999999999999999,0.0,5.999999999999999,5.999999999999999
2015-10-16,5.999999999999998,0.0,5.999999999999998,5.999999999999998
2015-10-17,5.999999999999998,0.0,5.999999999999998,5.999999999999998
2015-10-18,5.999999999999998,0.0,5.999999999999998,5.999999999999998
2015-10-19,5.999999999999998,0.0,5.999999999999998,5.999999999999998
2015-10-20,6.0,1.0,6.0,6.0
2015-10-21,6.0,1.0,6.0,6.0
2015-10-22,7.0,2.0,6.5,6.0
2015-10-23,8.0,1.0,8.0,8.0
2015-10-24,7.33333333333333,0.0,7.33333333333333,7.33333333333333
2015-10-25,6.666666666666664,0.0,6.666666666666664,6.666666666666664
2015-10-26,6.0,1.0,6.0,6.0
2015-10-27,7.1324999999999985,0.0,6.5002499999999985,5.8679999999999986
2015-10-28,8.265,5.0,7.0,5.736000000000001
2015-10-29,6.0,2.0,6.0,6.0
2015-10-30,4.999999999999998,0.0,4.999999999999998,4.999999999999998
2015-10-31,4.0,1.0,4.0,4.0
2015-11-01,8.0,1.0,8.0,8.0
2015-11-02,8.0,2.0,7.0,6.0
2015-11-03,8.0,1.0,8.0,8.0
2015-11-04,6.0,1.0,6.0,6.0
2015-11-05,5.499999999999998,0.0,5.499999999999998,5.499999999999998
2015-11-06,5.0,1.0,5.0,5.0
2015-11-07,4.749999999999999,0.0,4.749999999999999,4.749999999999999
2015-11-08,4.499999999999999,0.0,4.499999999999999,4.499999999999999
2015-11-09,4.249999999999998,0.0,4.249999999999998,4.249999999999998
2015-11-10,4.0,1.0,4.0,4.0
2015-11-11,5.0969999999999995,5.0,3.6,2.104
2015-11-12,6.720499999999997,0.0,5.100499999999998,3.4804999999999984
2015-11-13,8.344,5.0,6.6,4.857
2015-11-14,10.0,1.0,10.0,10.0
2015-11-15,7.9999999999999964,0.0,7.4999999999999964,6.999999999999997
2015-11-16,6.0,2.0,5.0,4.0
2015-11-17,5.0,1.0,5.0,5.0
2015-11-18,4.999999999999998,0.0,4.999999999999998,4.999999999999998
2015-11-19,5.0,1.0,5.0,5.0
2015-11-20,7.0,2.0,7.0,7.0
2015-11-21,4.0,1.0,4.0,4.0
2015-11-22,4.499999999999999,0.0,4.499999999999999,4.499999999999999
2015-11-23,5.0,1.0,5.0,5.0
2015-11-24,7.499999999999997,0.0,7.499999999999997,7.499999999999997
2015-11-25,10.0,1.0,10.0,10.0
2015-11-26,7.9999999999999964,0.0,7.7499999999999964,7.4999999999999964
2015-11-27,6.0,2.0,5.5,5.0
2015-11-28,5.0,1.0,5.0,5.0
2015-11-29,4.999999999999998,0.0,4.999999999999998,4.999999999999998
2015-11-30,5.0,1.0,5.0,5.0
2015-12-01,5.428571428571428,0.0,5.428571428571428,5.428571428571428
2015-12-02,5.857142857142856,0.0,5.857142857142856,5.857142857142856
2015-12-03,6.285714285714285,0.0,6.285714285714285,6.285714285714285
2015-12-04,6.714285714285713,0.0,6.714285714285713,6.714285714285713
2015-12-05,7.1428571428571415,0.0,7.1428571428571415,7.1428571428571415
2015-12-06,7.571428571428569,0.0,7.571428571428569,7.571428571428569
2015-12-07,8.0,1.0,8.0,8.0
2015-12-08,9.722000000000001,3.0,7.667000000000001,5.612
2015-12-09,10.0,1.0,10.0,10.0
2015-12-10,4.0,2.0,3.0,2.0
2015-12-11,4.999999999999998,0.0,4.499999999999998,3.999999999999999
2015-12-12,6.0,1.0,6.0,6.0
2015-12-13,6.0,1.0,6.0,6.0
2015-12-14,7.2109999999999985,0.0,6.666833333333331,6.122666666666665
2015-12-15,8.421999999999997,0.0,7.333666666666664,6.245333333333331
2015-12-16,9.633,3.0,8.0,6.367999999999999
2015-12-17,9.0,1.0,9.0,9.0
2015-12-18,9.2,0.0,9.0,8.799999999999999
2015-12-19,9.399999999999999,0.0,9.0,8.6
2015-12-20,9.599999999999998,0.0,8.999999999999998,8.399999999999999
2015-12-21,9.799999999999999,0.0,9.0,8.2
2015-12-22,10.0,2.0,9.0,8.0
2015-12-23,9.61,3.0,8.667,7.724
2015-12-24,8.0,1.0,8.0,8.0
2015-12-25,7.999999999999999,0.0,7.999999999999999,7.999999999999999
2015-12-26,8.0,1.0,8.0,8.0
2015-12-27,7.499999999999997,0.0,7.249999999999997,6.999999999999997
2015-12-28,7.0,2.0,6.5,6.0
2015-12-29,5.499999999999998,0.0,5.249999999999998,4.999999999999998
2015-12-30,4.0,1.0,4.0,4.0
2015-12-31,4.333333333333332,0.0,4.333333333333332,4.333333333333332
2016-01-01,4.666666666666666,0.0,4.666666666666666,4.666666666666666
2016-01-02,5.0,1.0,5.0,5.0
2016-01-03,5.749999999999999,0.0,5.749999999999999,5.749999999999999
2016-01-04,6.499999999999998,0.0,6.499999999999998,6.499999999999998
2016-01-05,7.249999999999998,0.0,7.249999999999998,7.249999999999998
2016-01-06,8.0,1.0,8.0,8.0
2016-01-07,10.0,1.0,10.0,10.0
2016-01-08,3.0,1.0,3.0,3.0
2016-01-09,4.499999999999999,0.0,4.499999999999999,4.499999999999999
2016-01-10,6.0,1.0,6.0,6.0
2016-01-11,8.0,1.0,8.0,8.0
2016-01-12,7.999999999999999,0.0,7.999999999999999,7.999999999999999
2016-01-13,8.0,1.0,8.0,8.0
2016-01-14,7.0,2.0,6.0,5.0
2016-01-15,7.242999999999999,7.0,5.143,3.0439999999999996
2016-01-16,6.0,2.0,5.0,4.0
2016-01-17,6.0,1.0,6.0,6.0
2016-01-18,8.0,2.0,5.0,2.0
2016-01-19,8.332499999999996,0.0,5.821749999999998,3.310999999999999
2016-01-20,8.665,14.0,6.643,4.622
2016-01-21,7.682,5.0,5.2,2.719
2016-01-22,6.840999999999998,0.0,5.600249999999999,4.359499999999999
2016-01-23,6.0,1.0,6.0,6.0
2016-01-24,7.999999999999997,0.0,7.999999999999997,7.999999999999997
2016-01-25,10.0,1.0,10.0,10.0
2016-01-26,9.161,3.0,7.0,4.84
2016-01-27,7.0,1.0,7.0,7.0
2016-01-28,5.0,2.0,4.0,3.0
2016-01-29,5.333333333333331,0.0,4.666666666666665,3.999999999999999
2016-01-30,5.666666666666665,0.0,5.333333333333332,4.999999999999998
2016-01-31,6.0,1.0,6.0,6.0
2016-02-01,7.999999999999997,0.0,6.499999999999998,4.999999999999998
2016-02-02,10.0,2.0,7.0,4.0
2016-02-03,9.33333333333333,0.0,7.333333333333331,5.333333333333332
2016-02-04,8.666666666666664,0.0,7.666666666666665,6.666666666666666
2016-02-05,8.0,1.0,8.0,8.0
2016-02-06,7.0,2.0,6.5,6.0
2016-02-07,8.0,1.0,8.0,8.0
2016-02-08,6.0,2.0,6.0,6.0
2016-02-09,8.0,1.0,8.0,8.0
2016-02-10,7.999999999999999,0.0,7.999999999999999,7.999999999999999
2016-02-11,7.999999999999999,0.0,7.999999999999999,7.999999999999999
2016-02-12,7.999999999999999,0.0,7.999999999999999,7.999999999999999
2016-02-13,7.999999999999999,0.0,7.999999999999999,7.999999999999999
2016-02-14,7.999999999999998,0.0,7.999999999999998,7.999999999999998
2016-02-15,8.0,1.0,8.0,8.0
2016-02-16,7.0,1.0,7.0,7.0
2016-02-17,6.0,1.0,6.0,6.0
2016-02-18,8.277000000000001,3.0,7.334,6.391
2016-02-19,7.707749999999999,0.0,6.750499999999999,5.793249999999999
2016-02-20,7.138499999999999,0.0,6.166999999999999,5.195499999999999
2016-02-21,6.5692499999999985,0.0,5.583499999999999,4.597749999999999
2016-02-22,6.0,2.0,5.0,4.0
2016-02-23,7.707499999999998,0.0,6.5002499999999985,5.292999999999999
2016-02-24,9.415,4.0,8.0,6.586
2016-02-25,6.0,1.0,6.0,6.0
2016-02-26,6.0,1.0,6.0,6.0
2016-02-27,6.0,1.0,6.0,6.0
2016-02-28,6.0,1.0,6.0,6.0
2016-02-29,9.0,1.0,9.0,9.0
2016-03-01,7.68,4.0,5.5,3.321
2016-03-02,7.842499999999997,0.0,6.050499999999998,4.2585
2016-03-03,8.005,15.0,6.6,5.196000000000001
2016-03-04,8.0,2.0,8.0,8.0
2016-03-05,8.0,1.0,8.0,8.0
2016-03-06,8.0,2.0,6.0,4.0
2016-03-07,7.096,5.0,6.0,4.905
2016-03-08,3.0,1.0,3.0,3.0
2016-03-09,5.0,1.0,5.0,5.0
2016-03-10,10.0,2.0,8.0,6.0
2016-03-11,9.79025,0.0,7.750125000000001,5.71
2016-03-12,9.580499999999999,0.0,7.500249999999999,5.42
2016-03-13,9.37075,0.0,7.250374999999999,5.129999999999999
2016-03-14,9.161,3.0,7.0,4.84
2016-03-15,8.0,2.0,7.0,6.0
2016-03-16,8.0,2.0,6.0,4.0
2016-03-17,6.0,1.0,6.0,6.0
2016-03-18,4.0,1.0,4.0,4.0
2016-03-19,4.999999999999998,0.0,4.999999999999998,4.999999999999998
2016-03-20,6.0,1.0,6.0,6.0
2016-03-21,10.033999999999999,3.0,8.334,6.6339999999999995
2016-03-22,6.914,3.0,5.667000000000001,4.42
2016-03-23,10.0,2.0,8.0,6.0
2016-03-24,9.633,3.0,8.0,6.367999999999999
2016-03-25,3.0,1.0,3.0,3.0
2016-03-26,6.0,2.0,4.5,3.0
2016-03-27,4.0,1.0,4.0,4.0
2016-03-28,6.999999999999998,0.0,5.999999999999998,4.999999999999998
2016-03-29,10.0,2.0,8.0,6.0
2016-03-30,8.184,4.0,7.75,7.317
2016-03-31,10.0,1.0,10.0,10.0
2016-04-01,6.0,3.0,6.0,6.0
2016-04-02,8.0,1.0,8.0,8.0
2016-04-03,6.0,2.0,5.5,5.0
2016-04-04,6.854,6.0,6.167000000000001,5.48
2016-04-05,8.255,5.0,6.4,4.546
2016-04-06,7.0,4.0,5.5,4.0
2016-04-07,8.758,3.0,5.667000000000001,2.576
2016-04-08,6.0,1.0,6.0,6.0
2016-04-09,6.0,1.0,6.0,6.0
2016-04-10,6.0,2.0,6.0,6.0
2016-04-11,8.277000000000001,3.0,7.334,6.391
2016-04-12,10.0,1.0,10.0,10.0
2016-04-13,8.0,2.0,7.0,6.0
2016-04-14,8.0,2.0,8.0,8.0
2016-04-15,9.913,5.0,7.2,4.488
2016-04-16,8.0,2.0,7.0,6.0
2016-04-17,8.0,1.0,8.0,8.0
2016-04-18,8.158999999999999,4.0,6.5,4.842
2016-04-19,10.0,2.0,6.5,3.0
2016-04-20,8.0,2.0,7.0,6.0
2016-04-21,8.161,3.0,6.0,3.84
2016-04-22,10.0,2.0,7.5,5.0
2016-04-23,8.0,1.0,8.0,8.0
2016-04-24,5.902499999999999,0.0,5.666749999999999,5.430999999999997
2016-04-25,3.805,3.0,3.3339999999999996,2.862
2016-04-26,9.789,5.0,8.0,6.212000000000001
2016-04-27,9.527499999999998,0.0,7.000499999999999,4.4735000000000005
2016-04-28,9.266,3.0,6.0,2.735
2016-04-29,8.184,4.0,7.75,7.317
2016-04-30,8.0,2.0,6.5,5.0
2016-05-01,8.0,1.0,8.0,8.0
2016-05-02,9.722000000000001,6.0,7.667000000000001,5.612
2016-05-03,7.8,10.0,5.6,3.4
2016-05-04,9.367,3.0,7.667000000000001,5.9670000000000005
2016-05-05,7.747999999999999,10.0,5.5,3.253
2016-05-06,4.735,8.0,2.75,0.7659999999999999
2016-05-07,2.805,3.0,2.334,1.8619999999999999
2016-05-08,8.0,2.0,6.0,4.0
2016-05-09,6.0,2.0,4.0,2.0
2016-05-10,10.08,4.0,9.25,8.421
2016-05-11,8.277000000000001,3.0,7.334,6.391
2016-05-12,7.0,2.0,5.0,3.0
2016-05-13,5.0,1.0,5.0,5.0
2016-05-14,8.0,2.0,5.5,3.0
2016-05-15,6.73,4.0,5.25,3.7710000000000004
2016-05-16,8.536,4.0,6.75,4.965
2016-05-17,8.0,2.0,7.0,6.0
2016-05-18,9.896,11.0,7.546,5.196000000000001
2016-05-19,8.868,6.0,6.834,4.7989999999999995
2016-05-20,7.678,10.0,6.1,4.523
2016-05-21,9.115499999999997,0.0,7.383999999999999,5.652499999999999
2016-05-22,10.552999999999999,3.0,8.667,6.782
2016-05-23,8.277000000000001,3.0,7.334,6.391
2016-05-24,5.0,1.0,5.0,5.0
2016-05-25,6.0,2.0,5.5,5.0
2016-05-26,8.552999999999999,3.0,6.667000000000001,4.782
2016-05-27,9.415,4.0,8.0,6.586
2016-05-28,9.707499999999996,0.0,8.500249999999996,7.292999999999997
2016-05-29,10.0,2.0,9.0,8.0
2016-05-30,8.0,1.0,8.0,8.0
2016-05-31,8.562000000000001,7.0,6.572,4.582
2016-06-01,8.139,3.0,7.667000000000001,7.196000000000001
2016-06-02,7.0,1.0,7.0,7.0
2016-06-03,8.0,1.0,8.0,8.0
2016-06-04,8.0,1.0,8.0,8.0
2016-06-05,10.0,2.0,6.5,3.0
2016-06-06,8.047,6.0,6.834,5.62
2016-06-07,8.523499999999997,0.0,7.166749999999998,5.809999999999999
2016-06-08,9.0,4.0,7.5,6.0
2016-06-09,3.0,1.0,3.0,3.0
2016-06-10,4.666666666666666,0.0,4.666666666666666,4.666666666666666
2016-06-11,6.333333333333332,0.0,6.333333333333332,6.333333333333332
2016-06-12,8.0,1.0,8.0,8.0
2016-06-13,6.0,1.0,6.0,6.0
2016-06-14,8.45,4.0,6.0,3.551
2016-06-15,9.84,4.0,8.75,7.6610000000000005
2016-06-16,9.633,3.0,8.0,6.367999999999999
2016-06-17,6.7379999999999995,11.0,4.637,2.536
2016-06-18,5.303,10.0,3.3,1.298
2016-06-19,6.0,2.0,4.0,2.0
2016-06-20,7.4639999999999995,8.0,5.75,4.037
2016-06-21,6.316,10.0,4.7,3.085
2016-06-22,6.718,6.0,4.5,2.283
2016-06-23,8.112,8.0,5.25,2.3890000000000002
2016-06-24,5.564,7.0,4.2860000000000005,3.008
2016-06-25,4.277,3.0,3.3339999999999996,2.391
2016-06-26,6.0,2.0,6.0,6.0
2016-06-27,8.122,4.0,6.0,3.8789999999999996
2016-06-28,7.46,5.0,5.4,3.341
2016-06-29,5.225,4.0,4.0,2.7760000000000002
2016-06-30,5.0,1.0,5.0,5.0
2016-07-01,8.0,2.0,6.5,5.0
2016-07-02,4.0,1.0,4.0,4.0
2016-07-03,6.499999999999998,0.0,6.499999999999998,6.499999999999998
2016-07-04,9.0,1.0,9.0,9.0
2016-07-05,7.0,2.0,6.0,5.0
2016-07-06,6.0,1.0,6.0,6.0
2016-07-07,8.122,4.0,6.0,3.8789999999999996
2016-07-08,5.560999999999998,0.0,4.5002499999999985,3.4394999999999993
2016-07-09,3.0,1.0,3.0,3.0
2016-07-10,10.0,1.0,10.0,10.0
2016-07-11,8.0,1.0,8.0,8.0
2016-07-12,8.0,2.0,7.0,6.0
2016-07-13,6.0,2.0,5.5,5.0
2016-07-14,8.0,2.0,6.0,4.0
2016-07-15,6.0,2.0,6.0,6.0
2016-07-16,4.0,1.0,4.0,4.0
2016-07-17,4.999999999999998,0.0,4.999999999999998,4.999999999999998
2016-07-18,6.0,1.0,6.0,6.0
2016-07-19,6.0,1.0,6.0,6.0
2016-07-20,5.367000000000001,3.0,3.667,1.9669999999999999
2016-07-21,9.581,3.0,8.334,7.087000000000001
2016-07-22,7.096,5.0,6.0,4.905
2016-07-23,6.730666666666665,0.0,6.000333333333332,5.27
2016-07-24,6.365333333333331,0.0,6.000166666666665,5.635
2016-07-25,6.0,1.0,6.0,6.0
2016-07-26,8.415,3.0,7.0,5.586
2016-07-27,9.161,3.0,7.0,4.84
2016-07-28,7.0,2.0,6.5,6.0
2016-07-29,7.0,2.0,5.0,3.0
2016-07-30,9.0,2.0,8.5,8.0
2016-07-31,10.0,1.0,10.0,10.0
2016-08-01,9.535,3.0,6.667000000000001,3.8
2016-08-02,4.914,3.0,3.667,2.42
2016-08-03,6.442,9.0,4.112,1.781
2016-08-04,9.52,4.0,6.25,2.9810000000000003
2016-08-05,6.0,1.0,6.0,6.0
2016-08-06,6.014,0.0,5.555833333333332,5.097666666666665
2016-08-07,6.028,0.0,5.111666666666666,4.195333333333332
2016-08-08,6.042000000000001,6.0,4.667,3.293
2016-08-09,7.521,0.0,6.833749999999998,6.146499999999998
2016-08-10,9.0,1.0,9.0,9.0
2016-08-11,10.0,2.0,8.0,6.0
2016-08-12,6.0,1.0,6.0,6.0
2016-08-13,8.0,2.0,7.0,6.0
2016-08-14,4.0,1.0,4.0,4.0
2016-08-15,5.999999999999999,0.0,5.499999999999998,4.999999999999998
2016-08-16,8.0,2.0,7.0,6.0
2016-08-17,5.817,3.0,5.0,4.184
2016-08-18,4.708,4.0,4.0,3.293
2016-08-19,8.871,4.0,7.0,5.13
2016-08-20,10.0,1.0,10.0,10.0
2016-08-21,6.138999999999999,3.0,5.667000000000001,5.196000000000001
2016-08-22,8.0,2.0,5.5,3.0
2016-08-23,9.415,4.0,8.0,6.586
2016-08-24,7.789,5.0,6.0,4.212
2016-08-25,8.0,2.0,7.5,7.0
2016-08-26,7.7379999999999995,4.0,5.25,2.763
2016-08-27,8.0,1.0,8.0,8.0
2016-08-28,6.0,2.0,4.5,3.0
2016-08-29,3.0,1.0,3.0,3.0
2016-08-30,6.805,3.0,6.334,5.862
2016-08-31,8.263499999999999,0.0,7.000249999999999,5.737
2016-09-01,9.722000000000001,3.0,7.667000000000001,5.612
2016-09-02,6.0,1.0,6.0,6.0
2016-09-03,5.999999999999998,0.0,5.999999999999998,5.999999999999998
2016-09-04,6.0,1.0,6.0,6.0
2016-09-05,5.499999999999998,0.0,5.249999999999998,4.999999999999998
2016-09-06,5.0,2.0,4.5,4.0
2016-09-07,9.68,4.0,7.5,5.321000000000001
2016-09-08,5.138999999999999,3.0,4.667,4.196000000000001
2016-09-09,8.367,3.0,6.667000000000001,4.967
2016-09-10,6.0,2.0,5.0,4.0
2016-09-11,8.0,2.0,7.0,6.0
2016-09-12,6.0,1.0,6.0,6.0
2016-09-13,4.499999999999998,0.0,4.499999999999998,4.499999999999998
2016-09-14,3.0,1.0,3.0,3.0
2016-09-15,9.633,3.0,8.0,6.367999999999999
2016-09-16,7.4,5.0,5.8,4.2
2016-09-17,8.0,1.0,8.0,8.0
2016-09-18,7.0,2.0,6.5,6.0
2016-09-19,9.219,6.0,7.334,5.4479999999999995
2016-09-20,7.742000000000001,7.0,5.858,3.9730000000000003
2016-09-21,7.564,7.0,6.2860000000000005,5.008
2016-09-22,7.0,2.0,6.0,5.0
2016-09-23,9.087,10.0,7.2,5.314
2016-09-24,7.0,1.0,7.0,7.0
2016-09-25,6.0,1.0,6.0,6.0
2016-09-26,8.097000000000001,5.0,6.6,5.104
2016-09-27,6.0,2.0,5.5,5.0
2016-09-28,8.55,5.0,7.0,5.4510000000000005
2016-09-29,5.0,2.0,4.5,4.0
2016-09-30,7.581,3.0,6.334,5.087
2016-10-01,6.0,2.0,4.5,3.0
2016-10-02,5.999999999999998,0.0,5.249999999999998,4.499999999999999
2016-10-03,6.0,1.0,6.0,6.0
2016-10-04,5.582000000000001,4.0,4.0,2.419
2016-10-05,8.036,4.0,6.25,4.465
2016-10-06,6.0,1.0,6.0,6.0
2016-10-07,5.999999999999998,0.0,5.999999999999998,5.999999999999998
2016-10-08,6.0,1.0,6.0,6.0
2016-10-09,4.999999999999998,0.0,4.999999999999998,4.999999999999998
2016-10-10,4.0,1.0,4.0,4.0
2016-10-11,10.0,1.0,10.0,10.0
2016-10-12,7.581,3.0,6.334,5.087
2016-10-13,7.582000000000001,8.0,6.0,4.419
2016-10-14,7.4,5.0,6.6,5.8
2016-10-15,5.0,1.0,5.0,5.0
2016-10-16,5.499999999999998,0.0,5.499999999999998,5.499999999999998
2016-10-17,6.0,1.0,6.0,6.0
2016-10-18,8.0,2.0,6.0,4.0
2016-10-19,3.0,1.0,3.0,3.0
2016-10-20,6.0,2.0,6.0,6.0
2016-10-21,10.0,1.0,10.0,10.0
2016-10-22,8.27233333333333,0.0,8.000166666666665,7.727999999999998
2016-10-23,6.544666666666663,0.0,6.00033333333333,5.455999999999997
2016-10-24,4.817,3.0,4.0,3.1839999999999997
2016-10-25,6.78,5.0,5.8,4.821000000000001
2016-10-26,8.829,3.0,6.0,3.1719999999999997
2016-10-27,8.921,5.0,7.2,5.48
2016-10-28,7.127000000000001,5.0,5.8,4.474
2016-10-29,4.708,4.0,4.0,3.293
2016-10-30,10.0,1.0,10.0,10.0
2016-10-31,8.277000000000001,6.0,7.334,6.391
2016-11-01,8.097999999999999,5.0,6.0,3.903
2016-11-02,6.0,1.0,6.0,6.0
2016-11-03,5.415,3.0,4.0,2.5860000000000003
2016-11-04,7.159,4.0,5.5,3.842
2016-11-05,10.0,1.0,10.0,10.0
2016-11-06,7.127000000000001,5.0,5.8,4.474
2016-11-07,10.0,2.0,9.0,8.0
2016-11-08,5.415,3.0,4.0,2.5860000000000003
2016-11-09,9.0,2.0,7.5,6.0
2016-11-10,7.499999999999997,0.0,5.999999999999998,4.499999999999998
2016-11-11,6.0,4.0,4.5,3.0
2016-11-12,6.0,1.0,6.0,6.0
2016-11-13,10.0,1.0,10.0,10.0
2016-11-14,8.0,2.0,7.0,6.0
2016-11-15,10.434000000000001,6.0,8.167,5.9
2016-11-16,9.415,4.0,8.0,6.586
2016-11-17,8.219,6.0,6.334,4.448
2016-11-18,7.1095,0.0,6.1667499999999995,5.223999999999999
2016-11-19,6.0,1.0,6.0,6.0
2016-11-20,8.0,2.0,6.5,5.0
2016-11-21,5.61,3.0,4.667,3.7239999999999998
2016-11-22,7.212000000000001,9.0,6.112,5.012
2016-11-23,8.27,5.0,6.8,5.331
2016-11-24,8.134999999999998,0.0,6.900249999999998,5.665499999999997
2016-11-25,8.0,2.0,7.0,6.0
2016-11-26,7.7109999999999985,0.0,6.725124999999999,5.73925
2016-11-27,7.421999999999998,0.0,6.450249999999999,5.4784999999999995
2016-11-28,7.132999999999997,0.0,6.175374999999998,5.217749999999999
2016-11-29,6.843999999999999,10.0,5.9,4.957
2016-11-30,8.122,4.0,6.0,3.8789999999999996
2016-12-01,5.581,3.0,4.334,3.0869999999999997
2016-12-02,6.61,3.0,5.667000000000001,4.724
2016-12-03,8.0,2.0,5.5,3.0
2016-12-04,6.0,1.0,6.0,6.0
2016-12-05,8.621,7.0,6.715,4.809
2016-12-06,8.671,4.0,6.75,4.83
2016-12-07,7.415,3.0,6.0,4.586
2016-12-08,7.255,5.0,5.4,3.5460000000000003
2016-12-09,8.0,4.0,7.5,7.0
2016-12-10,6.582000000000001,4.0,5.0,3.4189999999999996
2016-12-11,4.0,1.0,4.0,4.0
2016-12-12,4.0,1.0,4.0,4.0
2016-12-13,9.535,3.0,6.667000000000001,3.8
2016-12-14,9.73,4.0,8.25,6.771
2016-12-15,9.864999999999997,0.0,7.875249999999998,5.8854999999999995
2016-12-16,10.0,2.0,7.5,5.0
2016-12-17,8.0,2.0,7.0,6.0
2016-12-18,7.694499999999998,0.0,6.166999999999998,4.639499999999999
2016-12-19,7.388999999999999,3.0,5.334,3.279
2016-12-20,7.61,3.0,6.667000000000001,5.724
2016-12-21,9.722000000000001,3.0,7.667000000000001,5.612
2016-12-22,10.345999999999998,4.0,8.0,5.655
2016-12-23,9.0,1.0,9.0,9.0
2016-12-24,9.333333333333332,0.0,8.166666666666664,6.999999999999998
2016-12-25,9.666666666666664,0.0,7.33333333333333,4.999999999999997
2016-12-26,10.0,2.0,6.5,3.0
2016-12-27,8.0,2.0,6.5,5.0
2016-12-28,7.8389999999999995,5.0,5.2,2.562
2016-12-29,8.0,2.0,7.0,6.0
2016-12-30,9.237,4.0,7.0,4.763999999999999
2016-12-31,7.632999999999999,3.0,6.0,4.368
2017-01-01,8.0,1.0,8.0,8.0
2017-01-02,7.0,2.0,6.5,6.0
2017-01-03,8.139,3.0,7.667000000000001,7.196000000000001
2017-01-04,4.367,4.0,3.5,2.634
2017-01-05,8.122,4.0,6.0,3.8789999999999996
2017-01-06,6.05,4.0,4.75,3.451
2017-01-07,5.0,2.0,4.0,3.0
2017-01-08,8.23,4.0,6.75,5.271
2017-01-09,7.914,3.0,6.667000000000001,5.42
2017-01-10,8.187,0.0,6.533749999999999,4.880499999999998
2017-01-11,8.46,10.0,6.4,4.341
2017-01-12,8.0,2.0,6.0,4.0
2017-01-13,6.277,3.0,5.334,4.391
2017-01-14,6.0,2.0,5.0,4.0
2017-01-15,3.0,1.0,3.0,3.0
2017-01-16,10.552999999999999,3.0,8.667,6.782
2017-01-17,8.276499999999995,0.0,6.833749999999997,5.390999999999998
2017-01-18,6.0,2.0,5.0,4.0
2017-01-19,8.0,2.0,7.0,6.0
2017-01-20,8.0,1.0,8.0,8.0
2017-01-21,7.999999999999999,0.0,7.499999999999998,6.999999999999997
2017-01-22,8.0,2.0,7.0,6.0
2017-01-23,6.908499999999998,0.0,6.000249999999999,5.092
2017-01-24,5.817,3.0,5.0,4.184
2017-01-25,9.219,3.0,7.334,5.4479999999999995
2017-01-26,8.0,2.0,7.0,6.0
2017-01-27,7.801,5.0,6.2,4.6
2017-01-28,6.0,1.0,6.0,6.0
2017-01-29,10.0,1.0,10.0,10.0
2017-01-30,7.34,4.0,6.25,5.1610000000000005
2017-01-31,5.0,1.0,5.0,5.0
2017-02-01,8.914,3.0,7.667000000000001,6.42
2017-02-02,8.440499999999998,0.0,7.233749999999997,6.026999999999997
2017-02-03,7.9670000000000005,5.0,6.8,5.6339999999999995
2017-02-04,7.9834999999999985,0.0,6.900249999999999,5.816999999999999
2017-02-05,8.0,2.0,7.0,6.0
2017-02-06,3.0,1.0,3.0,3.0
2017-02-07,6.0,2.0,5.0,4.0
2017-02-08,6.580999999999999,0.0,4.833749999999998,3.0864999999999987
2017-02-09,7.162000000000001,3.0,4.667,2.173
2017-02-10,6.034,3.0,4.334,2.634
2017-02-11,6.0,2.0,6.0,6.0
2017-02-12,9.61,3.0,8.667,7.724
2017-02-13,6.415,5.0,5.0,3.5860000000000003
2017-02-14,10.297,4.0,8.25,6.204
2017-02-15,9.472999999999999,8.0,7.25,5.0280000000000005
2017-02-16,5.0,2.0,4.5,4.0
2017-02-17,9.389,3.0,7.334,5.279
2017-02-18,8.732666666666661,0.0,7.02283333333333,5.312999999999999
2017-02-19,8.076333333333329,0.0,6.711666666666664,5.346999999999999
2017-02-20,7.42,5.0,6.4,5.381
2017-02-21,5.103,7.0,3.858,2.612
2017-02-22,4.0,1.0,4.0,4.0
2017-02-23,6.0,1.0,6.0,6.0
2017-02-24,7.2799999999999985,0.0,6.600166666666665,5.920333333333331
2017-02-25,8.559999999999999,0.0,7.200333333333331,5.840666666666665
2017-02-26,9.84,5.0,7.8,5.761
2017-02-27,7.817,3.0,7.0,6.184
2017-02-28,9.18,22.0,7.455,5.73
2017-03-01,8.437000000000001,8.0,6.5,4.564
2017-03-02,8.758,3.0,5.667000000000001,2.576
2017-03-03,7.845,5.0,5.6,3.3560000000000003
2017-03-04,10.0,1.0,10.0,10.0
2017-03-05,10.0,2.0,6.0,2.0
2017-03-06,9.773,9.0,7.556,5.3389999999999995
2017-03-07,9.0,4.0,7.5,6.0
2017-03-08,4.0,1.0,4.0,4.0
2017-03-09,8.516,5.0,6.2,3.885
2017-03-10,8.0,2.0,8.0,8.0
2017-03-11,5.61,3.0,4.667,3.7239999999999998
2017-03-12,6.0,1.0,6.0,6.0
2017-03-13,6.437,8.0,4.5,2.5639999999999996
2017-03-14,7.84,5.0,5.8,3.761
2017-03-15,9.219,3.0,7.334,5.4479999999999995
2017-03-16,8.645,10.0,6.4,4.156000000000001
2017-03-17,8.762,5.0,6.2,3.639
2017-03-18,5.415,3.0,4.0,2.5860000000000003
2017-03-19,6.0,2.0,4.5,3.0
2017-03-20,5.871,12.0,4.0,2.13
2017-03-21,6.885,6.0,5.5,4.1160000000000005
2017-03-22,6.528,4.0,4.25,1.973
2017-03-23,7.19,7.0,5.428999999999999,3.668
2017-03-24,6.671,4.0,4.75,2.83
2017-03-25,7.335499999999996,0.0,5.375249999999998,3.4149999999999987
2017-03-26,8.0,2.0,6.0,4.0
2017-03-27,7.803,8.0,6.0,4.198
2017-03-28,6.58,4.0,5.75,4.921
2017-03-29,9.302999999999999,4.0,7.5,5.6979999999999995
2017-03-30,8.552999999999999,15.0,6.667000000000001,4.782
2017-03-31,6.805,3.0,6.334,5.862
2017-04-01,5.902499999999998,0.0,5.666749999999999,5.430999999999998
2017-04-02,5.0,1.0,5.0,5.0
2017-04-03,6.0,2.0,6.0,6.0
2017-04-04,6.499999999999998,0.0,5.999999999999998,5.499999999999998
2017-04-05,7.0,6.0,6.0,5.0
2017-04-06,8.0,4.0,6.5,5.0
2017-04-07,6.0,1.0,6.0,6.0
2017-04-08,6.0,2.0,6.0,6.0
2017-04-09,8.0,1.0,8.0,8.0
2017-04-10,8.266,7.0,6.2860000000000005,4.3069999999999995
2017-04-11,7.416,4.0,5.25,3.085
2017-04-12,7.0,2.0,6.0,5.0
2017-04-13,8.0,2.0,7.0,6.0
2017-04-14,9.68,4.0,7.5,5.321000000000001
2017-04-15,8.839999999999998,0.0,7.7502499999999985,6.660499999999999
2017-04-16,8.0,1.0,8.0,8.0
2017-04-17,7.722,3.0,5.667000000000001,3.612
2017-04-18,5.581,3.0,4.334,3.0869999999999997
2017-04-19,6.84,4.0,5.75,4.6610000000000005
2017-04-20,7.047000000000001,6.0,5.834,4.62
2017-04-21,9.845,5.0,7.6,5.356
2017-04-22,9.0,1.0,9.0,9.0
2017-04-23,8.0,1.0,8.0,8.0
2017-04-24,8.606499999999999,0.0,7.562749999999999,6.518999999999999
2017-04-25,9.213,8.0,7.125,5.038
2017-04-26,8.592,6.0,5.667000000000001,2.742
2017-04-27,9.349,13.0,7.231,5.113
2017-04-28,6.928999999999999,8.0,5.875,4.822
2017-04-29,9.237,4.0,7.0,4.763999999999999
2017-04-30,8.0,2.0,6.0,4.0
2017-05-01,9.429,12.0,7.334,5.239
2017-05-02,8.871,4.0,7.0,5.13
2017-05-03,9.308,8.0,7.375,5.443
2017-05-04,8.14,5.0,6.2,4.261
2017-05-05,7.0,6.0,6.0,5.0
2017-05-06,8.139,3.0,7.667000000000001,7.196000000000001
2017-05-07,9.0,2.0,7.5,6.0
2017-05-08,9.238,4.0,6.75,4.263
2017-05-09,6.415,3.0,5.0,3.5860000000000003
2017-05-10,7.632999999999999,3.0,6.0,4.368
2017-05-11,8.05,4.0,6.75,5.4510000000000005
2017-05-12,8.732999999999999,4.0,7.0,5.268
2017-05-13,6.367000000000001,4.0,5.5,4.6339999999999995
2017-05-14,7.798499999999998,0.0,6.625499999999999,5.452499999999999
2017-05-15,9.23,4.0,7.75,6.271
2017-05-16,7.144,5.0,5.4,3.657
2017-05-17,8.193499999999998,0.0,6.116999999999999,4.040499999999999
2017-05-18,9.243,6.0,6.834,4.4239999999999995
2017-05-19,8.0,2.0,5.5,3.0
2017-05-20,9.367,3.0,7.667000000000001,5.9670000000000005
2017-05-21,8.155,6.0,7.0,5.846
2017-05-22,9.337,18.0,7.445,5.553
2017-05-23,8.741,11.0,6.91,5.078
2017-05-24,8.84,15.0,6.8,4.761
2017-05-25,7.881,91.0,5.55,3.219
2017-05-26,7.234,69.0,5.421,3.608
2017-05-27,6.029,23.0,4.696000000000001,3.363
2017-05-28,7.939,12.0,6.167000000000001,4.395
2017-05-29,8.354,43.0,5.861000000000001,3.3680000000000003
2017-05-30,7.917000000000001,57.0,5.65,3.3819999999999997
2017-05-31,7.747999999999999,31.0,5.807,3.866
2017-06-01,7.8260000000000005,6.0,6.0,4.175
2017-06-02,9.027999999999999,14.0,7.143,5.2589999999999995
2017-06-03,6.0,2.0,5.0,4.0
2017-06-04,8.08,4.0,7.25,6.421
2017-06-05,6.9239999999999995,7.0,6.428999999999999,5.934
2017-06-06,8.334,18.0,6.667000000000001,5.0
2017-06-07,9.4,5.0,7.8,6.2
2017-06-08,7.55,11.0,5.364,3.179
2017-06-09,10.196,7.0,9.0,7.805
2017-06-10,6.671,4.0,4.75,2.83
2017-06-11,8.033999999999999,5.0,6.2,4.367
2017-06-12,8.419,15.0,6.067,3.716
2017-06-13,8.591000000000001,14.0,6.428999999999999,4.2669999999999995
2017-06-14,8.705,15.0,6.8,4.896
2017-06-15,7.149,18.0,4.834,2.5180000000000002
2017-06-16,5.896,15.0,3.867,1.838
2017-06-17,7.0,4.0,6.0,5.0
2017-06-18,7.0,2.0,4.5,2.0
2017-06-19,9.315,8.0,6.625,3.9360000000000004
2017-06-20,8.144,17.0,6.117999999999999,4.092
2017-06-21,6.961,16.0,5.313,3.665
2017-06-22,8.299,23.0,6.044,3.7889999999999997
2017-06-23,7.952000000000001,19.0,5.843,3.733
2017-06-24,6.742000000000001,9.0,4.888999999999999,3.037
2017-06-25,7.641,6.0,5.5,3.36
2017-06-26,7.898,24.0,5.5,3.103
2017-06-27,7.156000000000001,17.0,5.471,3.787
2017-06-28,8.202,15.0,6.667000000000001,5.132000000000001
2017-06-29,8.81,13.0,6.154,3.4989999999999997
2017-06-30,7.638999999999999,14.0,5.928999999999999,4.218999999999999
2017-07-01,8.962,13.0,7.0,5.039
2017-07-02,7.367000000000001,3.0,5.667000000000001,3.967
2017-07-03,9.199,7.0,6.428999999999999,3.659
2017-07-04,9.0,2.0,5.5,2.0
2017-07-05,8.109,18.0,6.0,3.892
2017-07-06,8.533,18.0,6.445,4.357
2017-07-07,7.028,9.0,4.7780000000000005,2.528
2017-07-08,6.415,3.0,5.0,3.5860000000000003
2017-07-09,7.632999999999999,3.0,6.0,4.368
2017-07-10,7.907,11.0,6.0,4.093999999999999
2017-07-11,7.105,42.0,4.928999999999999,2.7539999999999996
2017-07-12,6.752000000000001,25.0,5.16,3.569
2017-07-13,6.7589999999999995,21.0,5.428999999999999,4.099
2017-07-14,8.158,10.0,5.8,3.443
2017-07-15,8.582,6.0,6.0,3.4189999999999996
2017-07-16,6.0889999999999995,11.0,4.0,1.912
2017-07-17,7.307,20.0,4.9,2.494
2017-07-18,6.522,12.0,4.917,3.312
2017-07-19,7.191,21.0,4.762,2.334
2017-07-20,7.997000000000001,15.0,5.8,3.6039999999999996
2017-07-21,6.803999999999999,17.0,4.942,3.08
2017-07-22,7.025,5.0,5.4,3.7760000000000002
2017-07-23,7.516,11.0,5.455,3.3939999999999997
2017-07-24,9.95,8.0,7.5,5.051
2017-07-25,7.317,17.0,5.295,3.272
2017-07-26,7.808,25.0,5.36,2.9130000000000003
2017-07-27,6.5,6.0,6.167000000000001,6.0
2017-07-28,7.412999999999999,9.0,5.888999999999999,4.3660000000000005
2017-07-29,8.558,8.0,6.625,4.6930000000000005
2017-07-30,7.337000000000001,10.0,5.8,4.263999999999999
2017-07-31,6.377000000000001,17.0,5.1770000000000005,3.977
2017-08-01,5.0,12.0,4.584,3.0
2017-08-02,7.25,17.0,5.0,2.7510000000000003
2017-08-03,8.776,6.0,6.167000000000001,3.5580000000000003
2017-08-04,6.5,4.0,4.75,4.75
2017-08-05,4.0,1.0,4.0,4.0
2017-08-06,6.079499999999998,0.0,5.029749999999998,3.9799999999999995
2017-08-07,8.158999999999999,17.0,6.059,3.96
2017-08-08,7.95,8.0,5.5,3.051
2017-08-09,8.291,14.0,6.215,4.138
2017-08-10,7.292999999999999,30.0,5.8,4.308
2017-08-11,6.367000000000001,6.0,4.667,2.967
2017-08-12,5.206,8.0,4.875,4.545
2017-08-13,9.021,6.0,6.334,3.6460000000000004
2017-08-14,6.909,20.0,5.35,3.792
2017-08-15,7.683,14.0,5.7860000000000005,3.89
2017-08-16,7.059,30.0,5.6339999999999995,4.208
2017-08-17,7.4479999999999995,10.0,5.3,3.153
2017-08-18,8.21,9.0,6.223,4.235
2017-08-19,5.0,1.0,5.0,5.0
2017-08-20,7.915,6.0,6.0,4.086
2017-08-21,9.314,12.0,6.5,3.687
2017-08-22,7.2589999999999995,13.0,5.6160000000000005,3.9730000000000003
2017-08-23,7.415,12.0,6.0,4.586
2017-08-24,8.55,4.0,7.25,5.9510000000000005
2017-08-25,8.66,5.0,6.6,4.541
2017-08-26,6.553,6.0,4.667,2.782
2017-08-27,8.415,3.0,7.0,5.586
2017-08-28,5.34,4.0,4.25,3.161
2017-08-29,8.463,10.0,6.5,4.538
2017-08-30,7.144,8.0,5.875,4.607
2017-08-31,8.567,11.0,6.819,5.07
2017-09-01,6.412000000000001,8.0,4.875,3.339
2017-09-02,6.479,7.0,5.428999999999999,4.379
2017-09-03,6.972,11.0,5.091,3.2110000000000003
2017-09-04,6.149,14.0,4.428999999999999,2.7089999999999996
2017-09-05,6.768,21.0,4.667,2.5669999999999997
2017-09-06,5.8420000000000005,12.0,4.167,2.492
2017-09-07,6.096,5.0,5.0,3.905
2017-09-08,7.472,7.0,5.2860000000000005,3.1010000000000004
2017-09-09,2.0,1.0,2.0,2.0
2017-09-10,6.7379999999999995,4.0,4.25,1.7630000000000001
2017-09-11,7.845,5.0,5.6,3.3560000000000003
2017-09-12,7.712999999999999,11.0,6.091,4.47
2017-09-13,8.889,14.0,6.2860000000000005,3.6830000000000003
2017-09-14,6.343999999999999,15.0,4.6,2.8569999999999998
2017-09-15,6.062,20.0,4.05,2.039
2017-09-16,7.242999999999999,7.0,5.143,3.0439999999999996
2017-09-17,3.1839999999999997,4.0,2.75,2.3169999999999997
2017-09-18,5.609,13.0,3.924,2.238
2017-09-19,5.827000000000001,18.0,3.667,1.507
2017-09-20,9.219,18.0,7.334,5.4479999999999995
2017-09-21,9.828,6.0,7.334,4.8389999999999995
2017-09-22,6.4910000000000005,8.0,4.875,3.26
2017-09-23,6.0,2.0,4.5,3.0
2017-09-24,6.632999999999999,3.0,5.0,3.3680000000000003
2017-09-25,8.367,4.0,7.5,6.6339999999999995
2017-09-26,7.55,4.0,6.25,4.9510000000000005
2017-09-27,6.79,11.0,4.91,3.029
2017-09-28,8.84,10.0,6.8,4.761
2017-09-29,7.985,12.0,6.167000000000001,4.349
2017-09-30,7.31,7.0,5.143,2.977
2017-10-01,9.709,9.0,7.0,4.292
2017-10-02,5.55,4.0,4.25,2.951
2017-10-03,7.722,3.0,5.667000000000001,3.612
2017-10-04,7.255,10.0,5.4,3.5460000000000003
2017-10-05,7.61,6.0,6.667000000000001,5.724
2017-10-06,5.0,12.0,5.0,5.0
2017-10-07,6.0,1.0,6.0,6.0
2017-10-08,6.0,1.0,6.0,6.0
2017-10-09,6.0,1.0,6.0,6.0
2017-10-10,7.6,10.0,6.2,4.801
2017-10-11,8.047,6.0,6.834,5.62
2017-10-12,6.218999999999999,29.0,5.276,4.333
2017-10-13,7.577999999999999,20.0,5.95,4.323
2017-10-14,8.552999999999999,3.0,6.667000000000001,4.782
2017-10-15,10.0,2.0,8.5,7.0
2017-10-16,5.801,5.0,4.2,2.6
2017-10-17,8.424,8.0,6.625,4.827
2017-10-18,7.626,10.0,5.3,2.975
2017-10-19,7.632999999999999,6.0,6.0,4.368
2017-10-20,9.45,5.0,7.0,4.551
2017-10-21,6.0,2.0,5.5,5.0
2017-10-22,7.888,7.0,5.858,3.827
2017-10-23,7.882000000000001,13.0,6.0,4.119
2017-10-24,8.207,12.0,5.917000000000001,3.627
2017-10-25,6.9670000000000005,15.0,5.0,3.034
2017-10-26,5.577999999999999,8.0,4.125,2.673
2017-10-27,8.129,6.0,6.334,4.539
2017-10-28,8.0,4.0,7.5,7.0
2017-10-29,8.0,1.0,8.0,8.0
2017-10-30,7.619,4.0,6.5,5.382000000000001
2017-10-31,6.58,4.0,5.75,4.921
2017-11-01,8.092,10.0,6.3,4.5089999999999995
2017-11-02,6.898,5.0,5.0,3.103
2017-11-03,4.0,1.0,4.0,4.0
2017-11-04,5.0,2.0,5.0,5.0
2017-11-05,8.552999999999999,3.0,6.667000000000001,4.782
2017-11-06,7.619,4.0,6.5,5.382000000000001
2017-11-07,8.281,10.0,6.0,3.72
2017-11-08,7.629,22.0,5.591,3.554
2017-11-09,8.062999999999999,43.0,5.977,3.892
2017-11-10,7.574,126.0,5.445,3.3160000000000003
2017-11-11,8.905,53.0,6.529,4.1530000000000005
2017-11-12,6.986000000000001,7.0,6.2860000000000005,5.586
2017-11-13,7.349,33.0,4.849,2.349
2017-11-14,7.401,38.0,5.211,3.0210000000000004
2017-11-15,7.375,22.0,5.0,2.6260000000000003
2017-11-16,8.163,17.0,6.412000000000001,4.6610000000000005
2017-11-17,8.801,8.0,6.625,4.45
2017-11-18,8.686999999999996,0.0,6.464833333333331,4.242666666666666
2017-11-19,8.572999999999995,0.0,6.304166666666664,4.035333333333332
2017-11-20,8.459,21.0,6.143,3.8280000000000003
2017-11-21,7.167000000000001,23.0,5.1739999999999995,3.182
2017-11-22,8.027000000000001,21.0,5.715,3.4019999999999997
2017-11-23,8.315,14.0,6.858,5.401
2017-11-24,8.822000000000001,11.0,6.6370000000000005,4.4510000000000005
2017-11-25,8.777499999999998,0.0,6.818499999999999,4.859500000000001
2017-11-26,8.732999999999999,8.0,7.0,5.268
2017-11-27,7.875,33.0,5.607,3.338
2017-11-28,8.105,30.0,6.2,4.296
2017-11-29,8.07,39.0,6.154,4.239
2017-11-30,8.388,32.0,5.593999999999999,2.801
2017-12-01,6.336,20.0,4.2,2.065
2017-12-02,7.1679999999999975,0.0,5.100249999999998,3.0324999999999984
2017-12-03,8.0,10.0,6.0,4.0
2017-12-04,7.486000000000001,11.0,6.273,5.06
2017-12-05,7.763999999999999,22.0,5.819,3.873
2017-12-06,8.158999999999999,26.0,6.231,4.303999999999999
2017-12-07,7.1579999999999995,36.0,5.278,3.398
2017-12-08,8.327,27.0,5.852,3.377
2017-12-09,6.327999999999999,18.0,4.2780000000000005,2.229
2017-12-10,7.763999999999999,11.0,5.819,3.873
2017-12-11,8.149,38.0,6.079,4.01
2017-12-12,7.112,35.0,5.0,2.889
2017-12-13,8.252,42.0,5.81,3.3680000000000003
2017-12-14,7.598,41.0,5.537000000000001,3.4760000000000004
2017-12-15,7.455,28.0,5.5,3.5460000000000003
2017-12-16,7.019,12.0,5.084,3.1489999999999996
2017-12-17,7.29,17.0,5.648,4.005
2017-12-18,7.612,29.0,5.518,3.423
2017-12-19,7.414,41.0,5.292999999999999,3.1719999999999997
2017-12-20,7.432,50.0,5.46,3.489
2017-12-21,9.613999999999999,28.0,6.928999999999999,4.244
2017-12-22,7.212999999999999,74.0,4.933,2.653
2017-12-23,5.3420000000000005,55.0,3.437,1.5319999999999998
2017-12-24,5.68,18.0,3.778,1.876
2017-12-25,7.372999999999999,34.0,5.206,3.04
2017-12-26,7.5089999999999995,40.0,5.175,2.842
2017-12-27,7.7170000000000005,50.0,5.58,3.444
2017-12-28,6.965,29.0,4.794,2.622
2017-12-29,8.181000000000001,30.0,5.5,2.82
2017-12-30,7.022,17.0,4.883,2.7439999999999998
2017-12-31,6.882999999999999,34.0,4.677,2.471
2018-01-01,7.22,33.0,4.97,2.721
2018-01-02,8.988,50.0,6.52,4.053
2018-01-03,8.0,65.0,6.2,4.401
2018-01-04,8.527000000000001,45.0,6.445,4.363
2018-01-05,7.89,39.0,5.667000000000001,3.445
2018-01-06,6.671,23.0,4.87,3.069
2018-01-07,7.624,16.0,5.563,3.502
2018-01-08,8.229,58.0,6.0520000000000005,3.875
2018-01-09,7.1129999999999995,69.0,4.711,2.3080000000000003
2018-01-10,7.754,88.0,5.614,3.475
2018-01-11,6.632999999999999,53.0,4.963,3.292
2018-01-12,7.343999999999999,25.0,5.6,3.8569999999999998
2018-01-13,8.035,16.0,5.438,2.841
2018-01-14,7.767,25.0,5.4,3.034
2018-01-15,7.251,33.0,5.334,3.4160000000000004
2018-01-16,7.61,253.0,5.506,3.403
2018-01-17,7.285,341.0,5.124,2.9619999999999997
2018-01-18,7.681,225.0,5.457999999999999,3.235
2018-01-19,7.582000000000001,250.0,5.416,3.2510000000000003
2018-01-20,6.954,99.0,5.263,3.572
2018-01-21,6.837000000000001,40.0,4.825,2.8139999999999996
2018-01-22,6.478,89.0,4.529,2.5789999999999997
2018-01-23,7.61,98.0,5.132999999999999,2.656
2018-01-24,7.307,126.0,5.27,3.233
2018-01-25,7.2,102.0,5.01,2.821
2018-01-26,6.763,117.0,4.77,2.7769999999999997
2018-01-27,6.662000000000001,96.0,4.646,2.6310000000000002
2018-01-28,6.693,117.0,4.881,3.068
2018-01-29,6.382000000000001,107.0,4.664,2.946
2018-01-30,7.484,73.0,5.274,3.065
2018-01-31,7.256,93.0,5.053999999999999,2.853
2018-02-01,6.61,141.0,4.603,2.597
2018-02-02,5.861000000000001,143.0,4.1610000000000005,2.461
2018-02-03,5.516,83.0,3.8680000000000003,2.22
2018-02-04,6.371,104.0,4.558,2.7460000000000004
2018-02-05,5.882000000000001,121.0,4.24,2.5989999999999998
2018-02-06,6.292999999999999,128.0,4.477,2.661
2018-02-07,6.406000000000001,81.0,4.618,2.8289999999999997
2018-02-08,6.851,97.0,4.949,3.0469999999999997
2018-02-09,6.351,118.0,4.763,3.176
2018-02-10,6.978,115.0,5.018,3.057
2018-02-11,6.8660000000000005,113.0,4.992,3.117
2018-02-12,7.691,163.0,5.767,3.844
2018-02-13,7.785,171.0,5.8660000000000005,3.947
2018-02-14,7.931,139.0,5.59,3.25
2018-02-15,7.77,149.0,5.792000000000001,3.815
2018-02-16,6.88,82.0,5.415,3.951
2018-02-17,7.609,145.0,5.704,3.799
2018-02-18,7.271,88.0,5.5,3.73
2018-02-19,7.36,204.0,5.334,3.3080000000000003
2018-02-20,6.95,178.0,5.102,3.253
2018-02-21,6.643,161.0,4.715,2.786
2018-02-22,6.394,151.0,4.623,2.852
2018-02-23,6.511,174.0,4.587,2.6630000000000003
2018-02-24,5.553,192.0,3.87,2.187
2018-02-25,5.4910000000000005,195.0,3.8160000000000003,2.14
2018-02-26,6.69,202.0,4.585,2.48
2018-02-27,6.332999999999999,175.0,4.212,2.0909999999999997
2018-02-28,7.007999999999999,116.0,4.923,2.838
2018-03-01,6.563,118.0,4.712,2.862
2018-03-02,7.442,83.0,5.47,3.4989999999999997
2018-03-03,6.4270000000000005,76.0,4.645,2.863
2018-03-04,6.732,133.0,4.797,2.863
2018-03-05,7.365,191.0,5.278,3.1910000000000003
2018-03-06,7.237,180.0,5.256,3.275
2018-03-07,7.284,206.0,5.263,3.241
2018-03-08,7.371,208.0,5.3420000000000005,3.312
2018-03-09,7.308,198.0,5.127000000000001,2.946
2018-03-10,7.216,160.0,5.075,2.935
2018-03-11,7.329,227.0,5.0089999999999995,2.6889999999999996
2018-03-12,7.138,187.0,5.129,3.12
2018-03-13,6.752000000000001,208.0,4.765,2.778
2018-03-14,7.165,226.0,5.08,2.995
2018-03-15,6.706,241.0,4.7219999999999995,2.739
2018-03-16,7.254,187.0,5.22,3.185
2018-03-17,6.916,145.0,4.863,2.8089999999999997
2018-03-18,6.957000000000001,210.0,4.82,2.682
2018-03-19,6.917999999999999,215.0,4.945,2.971
2018-03-20,7.028,164.0,4.9030000000000005,2.778
2018-03-21,8.286,168.0,5.875,3.465
2018-03-22,8.283999999999999,171.0,5.9239999999999995,3.565
2018-03-23,7.329,138.0,5.254,3.179
2018-03-24,7.654,131.0,5.68,3.7060000000000004
2018-03-25,8.017999999999999,132.0,5.932,3.846
2018-03-26,7.149,92.0,5.109,3.069
2018-03-27,9.094,45.0,6.867000000000001,4.64
2018-03-28,9.437999999999999,47.0,7.064,4.691
2018-03-29,8.984,47.0,6.979,4.974
2018-03-30,9.11,36.0,7.223,5.335
2018-03-31,8.959,49.0,7.122999999999999,5.2860000000000005
2018-04-01,9.121,22.0,7.1370000000000005,5.153
2018-04-02,8.743,48.0,6.646,4.55
2018-04-03,8.706,73.0,6.535,4.363
2018-04-04,8.682,60.0,6.45,4.218999999999999
2018-04-05,8.889,62.0,6.8389999999999995,4.79
2018-04-06,8.883,45.0,6.8,4.718
2018-04-07,8.857000000000001,54.0,6.778,4.7
2018-04-08,8.429,38.0,6.527,4.625
2018-04-09,8.326,22.0,6.091,3.8569999999999998
2018-04-10,8.0,8.0,5.0,2.0
2018-04-11,7.247000000000001,199.0,5.0760000000000005,2.905
2018-04-12,8.761000000000001,58.0,6.638,4.515
2018-04-13,8.657,61.0,6.622999999999999,4.59
2018-04-14,8.831,23.0,6.696000000000001,4.561
2018-04-15,9.128,34.0,7.206,5.285
2018-04-16,9.236,42.0,7.167000000000001,5.098
2018-04-17,9.043,42.0,7.167000000000001,5.291
2018-04-18,9.128,50.0,7.08,5.033
2018-04-19,9.322000000000001,51.0,7.353,5.385
2018-04-20,8.706,65.0,6.4,4.095
2018-04-21,9.31,47.0,6.852,4.394
2018-04-22,8.889,37.0,6.892,4.895
2018-04-23,9.225,87.0,7.311,5.397
2018-04-24,8.468,90.0,6.523,4.578
2018-04-25,8.687000000000001,88.0,6.466,4.246
2018-04-26,8.337,93.0,6.484,4.632
2018-04-27,8.851,64.0,6.985,5.118
2018-04-28,9.174,54.0,7.167000000000001,5.16
2018-04-29,9.273,38.0,7.079,4.886
2018-04-30,8.892000000000001,44.0,7.41,5.928
2018-05-01,8.849,52.0,6.789,4.729
2018-05-02,9.125,49.0,7.021,4.917
2018-05-03,8.898,62.0,6.8229999999999995,4.748
2018-05-04,8.472999999999999,56.0,6.465,4.456
2018-05-05,9.475,48.0,7.855,6.235
2018-05-06,8.899,35.0,6.943,4.988
2018-05-07,8.832,54.0,6.76,4.688
2018-05-08,8.91,54.0,6.778,4.647
2018-05-09,9.119,33.0,7.364,5.609
2018-05-10,7.406000000000001,6.0,5.834,4.262
2018-05-11,8.879,46.0,6.914,4.948
2018-05-12,9.158999999999999,30.0,6.834,4.5089999999999995
2018-05-13,8.642999999999999,45.0,6.888999999999999,5.135
2018-05-14,8.885,43.0,7.024,5.162000000000001
2018-05-15,9.123,43.0,7.14,5.157
2018-05-16,9.222000000000001,72.0,7.167000000000001,5.112
2018-05-17,9.01,50.0,7.0,4.9910000000000005
2018-05-18,8.916,47.0,7.341,5.766
2018-05-19,8.908999999999999,48.0,6.896,4.883
2018-05-20,9.225,37.0,6.919,4.613
2018-05-21,8.84,19.0,7.316,5.792999999999999
2018-05-22,8.843,61.0,6.803999999999999,4.765
2018-05-23,8.899,72.0,6.806,4.713
2018-05-24,8.656,60.0,6.734,4.811
2018-05-25,8.692,51.0,6.687,4.6819999999999995
2018-05-26,9.221,53.0,7.114,5.007
2018-05-27,9.229,52.0,7.135,5.041
2018-05-28,9.385,56.0,7.072,4.758
2018-05-29,9.007,63.0,6.445,3.883
2018-05-30,9.11,51.0,7.236000000000001,5.361000000000001
2018-05-31,9.08,54.0,6.686,4.291
2018-06-01,9.117,21.0,6.62,4.122
2018-06-02,7.587999999999999,182.0,5.369,3.1489999999999996
2018-06-03,7.751,272.0,5.739,3.728
2018-06-04,7.481,252.0,5.452999999999999,3.425
2018-06-05,8.962,67.0,6.612,4.263
2018-06-06,9.174,53.0,6.906000000000001,4.638999999999999
2018-06-07,8.974,55.0,6.564,4.154
2018-06-08,9.289,41.0,7.171,5.053999999999999
2018-06-09,9.145,35.0,7.143,5.141
2018-06-10,8.777000000000001,35.0,6.742999999999999,4.71
2018-06-11,9.21,34.0,7.0,4.791
2018-06-12,10.0,1.0,10.0,10.0
2018-06-13,8.543,82.0,6.013,3.4819999999999998
2018-06-14,9.014,55.0,6.982,4.9510000000000005
2018-06-15,9.215,50.0,7.12,5.026
2018-06-16,8.136000000000001,37.0,5.973,3.8110000000000004
2018-06-17,8.857999999999999,25.0,6.92,4.9830000000000005
2018-06-18,9.051,37.0,7.244,5.437
2018-06-19,8.655,22.0,6.864,5.073
2018-06-20,9.222000000000001,52.0,7.039,4.855
2018-06-21,9.177999999999999,87.0,7.081,4.984
2018-06-22,8.918,70.0,6.843,4.769
2018-06-23,9.377,39.0,6.898,4.419
2018-06-24,8.042,49.0,5.266,2.49
2018-06-25,8.846,72.0,6.084,3.321
2018-06-26,9.544,64.0,7.016,4.488
2018-06-27,8.821,64.0,6.343999999999999,3.8680000000000003
2018-06-28,9.209,38.0,7.185,5.16
2018-06-29,9.619,4.0,8.5,7.382000000000001
2018-06-30,6.837000000000001,151.0,4.914,2.992
2018-07-01,9.049,63.0,6.952999999999999,4.857
2018-07-02,9.192,58.0,7.035,4.878
2018-07-03,8.888,81.0,7.099,5.31
2018-07-04,8.697000000000001,55.0,6.891,5.086
2018-07-05,8.995,82.0,7.061,5.127999999999999
2018-07-06,9.459,64.0,7.141,4.824
2018-07-07,9.247,54.0,7.445,5.643
2018-07-08,8.523,32.0,6.843999999999999,5.165
2018-07-09,9.18,73.0,7.1370000000000005,5.095
2018-07-10,8.596,69.0,6.682,4.7669999999999995
2018-07-11,8.876,41.0,6.903,4.93
2018-07-12,7.507999999999999,10.0,5.4,3.293
2018-07-13,9.12,64.0,6.968999999999999,4.819
2018-07-14,9.198,55.0,7.473,5.747999999999999
2018-07-15,8.275,13.0,6.231,4.187
2018-07-16,8.925,107.0,7.29,5.655
2018-07-17,9.037,93.0,7.13,5.222
2018-07-18,8.885,102.0,7.108,5.332000000000001
2018-07-19,9.031,76.0,7.513999999999999,5.996
2018-07-20,8.904,65.0,7.031000000000001,5.159
2018-07-21,9.204,67.0,7.4479999999999995,5.692
2018-07-22,9.44,45.0,6.912000000000001,4.383
2018-07-23,8.993,97.0,7.062,5.132000000000001
2018-07-24,8.886000000000001,85.0,6.706,4.527
2018-07-25,8.897,73.0,6.877000000000001,4.857
2018-07-26,8.877,91.0,6.979,5.08
2018-07-27,9.339,51.0,6.785,4.231
2018-07-28,9.324,28.0,6.465,3.605
2018-07-29,9.171,61.0,7.525,5.879
2018-07-30,9.227,36.0,6.973,4.718
2018-07-31,9.122,107.0,7.103,5.085
2018-08-01,9.142000000000001,83.0,7.157,5.172000000000001
2018-08-02,9.012,71.0,7.254,5.496
2018-08-03,8.929,76.0,6.9079999999999995,4.888
2018-08-04,9.204,55.0,6.9639999999999995,4.724
2018-08-05,8.954,74.0,6.595,4.236000000000001
2018-08-06,9.207,63.0,7.27,5.332999999999999
2018-08-07,9.14,101.0,7.367000000000001,5.593999999999999
2018-08-08,9.296,116.0,7.138,4.981
2018-08-09,9.222000000000001,87.0,6.897,4.573
2018-08-10,9.247,64.0,7.11,4.973
2018-08-11,9.127,78.0,7.142,5.156000000000001
2018-08-12,8.578,33.0,6.152,3.7260000000000004
2018-08-13,8.76,65.0,6.492999999999999,4.225
2018-08-14,8.779,127.0,6.709,4.638999999999999
2018-08-15,9.085,89.0,6.662999999999999,4.242
2018-08-16,8.771,75.0,6.56,4.35
2018-08-17,8.904,108.0,6.537999999999999,4.171
2018-08-18,9.103,78.0,6.898,4.6930000000000005
2018-08-19,9.033999999999999,45.0,6.534,4.034
2018-08-20,9.173,92.0,6.7829999999999995,4.393
2018-08-21,9.212,61.0,7.115,5.018
2018-08-22,9.049,62.0,6.742000000000001,4.436
2018-08-23,8.859,93.0,7.022,5.185
2018-08-24,9.043,74.0,7.23,5.417999999999999
2018-08-25,9.197000000000001,36.0,6.862,4.526
2018-08-26,9.022,71.0,7.0,4.979
2018-08-27,8.883,42.0,6.5,4.118
2018-08-28,9.027999999999999,71.0,7.381,5.733
2018-08-29,8.908999999999999,68.0,7.221,5.5329999999999995
2018-08-30,8.721,51.0,6.8629999999999995,5.005
2018-08-31,9.103,81.0,7.359,5.614
2018-09-01,9.408,35.0,7.229,5.05
2018-09-02,9.3,62.0,7.581,5.8629999999999995
2018-09-03,8.732999999999999,116.0,6.88,5.027
2018-09-04,8.888,68.0,6.632999999999999,4.378
2018-09-05,8.395,91.0,6.231,4.067
2018-09-06,8.832,99.0,6.334,3.835
2018-09-07,9.11,76.0,7.027,4.9430000000000005
2018-09-08,8.83,42.0,6.191,3.552
2018-09-09,9.244,58.0,6.845,4.447
2018-09-10,8.559,99.0,6.233,3.907
2018-09-11,8.753,96.0,6.521,4.29
2018-09-12,8.868,84.0,6.358,3.847
2018-09-13,8.767000000000001,76.0,6.487,4.208
2018-09-14,9.17,12.0,6.75,4.331
2018-09-15,9.302,69.0,6.914,4.526
2018-09-16,8.433,25.0,7.2,5.968
2018-09-17,8.775,110.0,6.782,4.79
2018-09-18,8.57,119.0,6.6979999999999995,4.8260000000000005
2018-09-19,8.662,117.0,6.6160000000000005,4.57
2018-09-20,8.468,106.0,6.265,4.061
2018-09-21,8.852,100.0,6.7,4.5489999999999995
2018-09-22,9.169,55.0,7.037000000000001,4.905
2018-09-23,8.835,59.0,7.017,5.2
2018-09-24,8.802999999999999,86.0,6.861000000000001,4.919
2018-09-25,8.984,88.0,6.8870000000000005,4.79
2018-09-26,9.027000000000001,103.0,6.942,4.8580000000000005
2018-09-27,9.043,85.0,6.824,4.606
2018-09-28,8.995,79.0,6.937,4.879
2018-09-29,9.062999999999999,50.0,7.1,5.138
2018-09-30,9.576,33.0,6.819,4.061
2018-10-01,8.969,47.0,6.66,4.351
2018-10-02,8.93,11.0,7.273,5.617000000000001
2018-10-03,8.816,84.0,6.7860000000000005,4.756
2018-10-04,8.597999999999999,25.0,5.88,3.1630000000000003
2018-10-05,8.98,88.0,6.875,4.771
2018-10-06,9.324,76.0,7.224,5.124
2018-10-07,10.0,19.0,6.422000000000001,6.215
2018-10-08,6.572,45.0,6.178,5.0
2018-10-09,7.535999999999996,0.0,6.517999999999997,5.499999999999998
2018-10-10,8.5,18.0,6.5,6.0
2018-10-11,7.2860000000000005,109.0,6.9910000000000005,5.5
2018-10-12,8.0,128.0,7.024,6.0
2018-10-13,8.0,99.0,7.142,6.5
2018-10-14,9.0,85.0,7.071000000000001,5.0
2018-10-15,6.983,117.0,6.983,3.0
2018-10-16,8.0,116.0,7.077999999999999,6.375
2018-10-17,8.5,123.0,7.261,6.5
2018-10-18,8.112,82.0,7.074,5.0
2018-10-19,7.2,16.0,6.188,6.0
2018-10-20,9.0,136.0,5.28,4.546
2018-10-21,7.0,86.0,6.535,3.0
2018-10-22,7.6,118.0,6.662000000000001,6.25
2018-10-23,6.8229999999999995,124.0,6.8229999999999995,0.0
2018-10-24,8.0,78.0,7.129,6.667000000000001
2018-10-25,6.334,125.0,5.127999999999999,4.0
2018-10-26,7.824,77.0,6.871,5.0
2018-10-27,8.0,65.0,7.031000000000001,3.75
2018-10-28,8.0,55.0,7.218999999999999,6.6
2018-10-29,7.313,105.0,6.867000000000001,6.2
2018-10-30,8.5,113.0,6.7,6.315
2018-10-31,8.25,127.0,6.733,6.672999999999999
2018-11-01,6.667000000000001,121.0,5.959,5.15
2018-11-02,9.0,161.0,6.386,4.5
2018-11-03,10.0,122.0,6.517,6.223
2018-11-04,7.0,104.0,6.5,4.5
2018-11-05,7.667000000000001,140.0,6.715,5.8
2018-11-06,7.0,176.0,6.353,5.445
2018-11-07,9.0,119.0,6.564,5.834
2018-11-08,10.0,86.0,5.896,5.734
2018-11-09,6.346,94.0,6.127999999999999,4.667
2018-11-10,6.667000000000001,73.0,5.781000000000001,3.5
2018-11-11,5.112,63.0,5.0,3.3339999999999996
2018-11-12,5.362,81.0,5.309,2.0
2018-11-13,6.765,112.0,5.858,4.0
2018-11-14,5.233,138.0,5.1739999999999995,2.667
2018-11-15,6.75,180.0,5.284,4.4
2018-11-16,6.0,97.0,5.0,4.0
2018-11-17,5.858,72.0,5.263999999999999,4.0
2018-11-18,10.0,96.0,5.157,4.4
2018-11-19,5.388999999999999,81.0,4.888999999999999,2.0
2018-11-20,10.0,76.0,4.75,4.5969999999999995
2018-11-21,5.084,84.0,5.084,1.0
2018-11-22,6.022,51.0,6.02,2.0
2018-11-23,9.0,36.0,4.723,4.1080000000000005
2018-11-24,4.5,4.0,4.5,2.0
2018-11-25,6.0,65.0,4.324,2.0
2018-11-26,4.5,89.0,4.405,2.0
2018-11-27,6.0,101.0,4.614,3.5
2018-11-28,6.0,146.0,5.131,4.334
2018-11-29,5.75,160.0,4.975,3.5
2018-11-30,10.0,42.0,4.953,4.125
